Text Analysis of Top Nutrition Journals (1990-2018)
…
We also see that the number of words mentioned in the abstracts diversifies, which is not surprising given the shift from titles to abstracts.

# tokenizing the abstract data into words 
abstract_data <- text_data %>% 
  unnest_tokens(word, abstract) %>% 
  anti_join(stop_words)

## Joining, by = "word"

# most frequent word count in abstracts 
abstract_data %>%
  count(word, sort = TRUE) 

## # A tibble: 167,873 x 2
##    word          n
##    <chr>     <int>
##  1 health   101701
##  2 study     76874
##  3 95        63876
##  4 risk      62861
##  5 results   60809
##  6 data      55717
##  7 ci        55428
##  8 patients  50165
##  9 studies   47560
## 10 women     44639
## # … with 167,863 more rows
…
## Joining, by = "word"

# looking at word frequencies by year 
abstract_words <- abstract_data %>%
  group_by(year) %>% 
  count(word, sort = TRUE) %>% 
  full_join(by_year, by = "year") %>% 
  mutate(per_article = n / apy) %>% 
  ungroup(); abstract_words

## # A tibble: 699,728 x 5
##     year word       n   apy per_article
##    <dbl> <chr>  <int> <int>       <dbl>
##  1  2018 health 12307  7286        1.69
##  2  2017 health 11142  6906        1.61
##  3  2016 health 10607  6788        1.56
##  4  2015 health 10375  7148        1.45
##  5  2018 study  10025  7286        1.38
##  6  2017 study   8602  6906        1.25
##  7  2014 health  8579  6631        1.29
##  8  2016 study   8439  6788        1.24
##  9  2015 study   8228  7148        1.15
## 10  2013 health  7819  6115        1.28
## # … with 699,718 more rows
…
