Examining Discursive Trends in Nutrition, Health and Food Science
…
Speaking of word frequencies… let’s take a look at that in the 1919-1989 database of article titles.

# tokenizing the abstract data into words 
title_data <- subset_data %>% 
  unnest_tokens(word, title) %>% 
  anti_join(stop_words)

## Joining, by = "word"

# most frequent word count in abstracts 
title_data %>%
  count(word, sort = TRUE)

## # A tibble: 35,089 x 2
##    word          n
##    <chr>     <int>
##  1 health    42977
##  2 food      25243
##  3 nutrition 12616
##  4 mental     5930
##  5 care       5426
##  6 public     5369
##  7 foods      5311
##  8 effects    3256
##  9 education  3224
## 10 effect     3047
## # … with 35,079 more rows
…
## Joining, by = "word"

# looking at word frequencies by year 
#title_words <- title_data %>%
#  group_by(year) %>% 
#  count(word, sort = TRUE) %>% ungroup(); title_words

title_words <- title_data %>%
  group_by(year) %>% 
  count(word, sort = TRUE) %>% 
  full_join(by_year, by = "year") %>% 
  mutate(per_article = n / apy) %>% 
  ungroup(); title_words

## # A tibble: 173,070 x 5
##     year word       n   apy per_article
##    <dbl> <chr>  <int> <int>       <dbl>
##  1  1987 health  2037  3874       0.526
##  2  1988 health  1984  3891       0.510
##  3  1986 health  1869  3780       0.494
##  4  1985 health  1826  3752       0.487
##  5  1984 health  1683  3451       0.488
##  6  1977 health  1652  3173       0.521
##  7  1978 health  1639  3224       0.508
##  8  1983 health  1631  3370       0.484
##  9  1981 health  1551  3257       0.476
## 10  1980 health  1530  3083       0.496
## # … with 173,060 more rows
…
